{
    "meta":{
        "name":"subscriber",
        "plural":"subscribers",
        "author":"mike",
        "version":"1.0.0",
        "created":"",
        "icon":"star",
        "dependencies":{
            "core":""
        }
    },
    "routes":{
        "manage/subscribers":"Subscriber\\Controllers\\All",
        "manage/subscribers/all":"Subscriber\\Controllers\\All",
        "manage/subscribers/new":"Subscriber\\Controllers\\Edit",
        "manage/subscribers/edit/:subscriber_id":"Subscriber\\Controllers\\Edit",
        "manage/subscribers/delete/:subscriber_id":"Subscriber\\Controllers\\Delete",
        "manage/subscribers/restore/:subscriber_id":"Subscriber\\Controllers\\Restore",
        "manage/subscribers/archive":"Subscriber\\Controllers\\Archive",
        "manage/subscribers/reorder/:this_id/:swap_id":"Subscriber\\Controllers\\Reorder"
    },
    "models":{
        "subscriber":{
            "fields":{
                "id":{
                    "pk":true,
                    "ai":true,
                    "size":"11",
                    "type":"int",
                    "presentation":"Id",
                    "table_view":true,
                    "edit_view":false,
                    "widget":"pk"
                },
                "entry_datetime":{
                    "size":"11",
                    "type":"int",
                    "presentation":"Entry Datetime",
                    "table_view":true,
                    "edit_view":false,
                    "widget":"date"
                },
                "deleted":{
                    "size":"1",
                    "default":"0",
                    "type":"int",
                    "presentation":"Deleted",
                    "table_view":false,
                    "edit_view":false,
                    "widget":"int"
                },
                "ordering":{
                    "size":"11",
                    "default":"1",
                    "type":"int",
                    "presentation":"Ordering",
                    "table_view":false,
                    "edit_view":false,
                    "widget":"int"
                },
                "name":{
                    "size":"100",
                    "type":"varchar",
                    "presentation":"Name",
                    "table_view":true,
                    "edit_view":true,
                    "widget":"varchar"
                },
                "email":{
                    "size":"100",
                    "type":"varchar",
                    "presentation":"Email",
                    "table_view":true,
                    "edit_view":true,
                    "widget":"varchar"
                }
            }
        }
    }
}