{
    "meta":{
        "name":"gallery_attachment",
        "plural":"gallery_attachments",
        "author":"",
        "version":"1.0.0",
        "created":"",
        "icon":"star",
        "dependencies":{
            "core":""
        }
    },
    "routes":{
        "manage/gallery_attachments":"Gallery_attachment\\Controllers\\All",
        "manage/gallery_attachments/all":"Gallery_attachment\\Controllers\\All",
        "manage/gallery_attachments/new":"Gallery_attachment\\Controllers\\Edit",
        "manage/gallery_attachments/edit/:gallery_attachment_id":"Gallery_attachment\\Controllers\\Edit",
        "manage/gallery_attachments/delete/:gallery_attachment_id":"Gallery_attachment\\Controllers\\Delete",
        "manage/gallery_attachments/restore/:gallery_attachment_id":"Gallery_attachment\\Controllers\\Restore",
        "manage/gallery_attachments/archive":"Gallery_attachment\\Controllers\\Archive",
        "manage/gallery_attachments/reorder/:this_id/:swap_id":"Gallery_attachment\\Controllers\\Reorder"
    },
    "models":{
        "gallery_attachment":{
            "fields":{
                "id":{
                    "pk":true,
                    "ai":true,
                    "size":"11",
                    "type":"int",
                    "presentation":"Id",
                    "table_view":true,
                    "edit_view":false,
                    "widget":"pk"
                },
                "gallery_id":{
                    "size":"11",
                    "type":"int",
                    "presentation":"Gallery Id",
                    "table_view":true,
                    "edit_view":true,
                    "widget":"int"
                },
                "attachment_id":{
                    "size":"11",
                    "type":"int",
                    "presentation":"Attachment Id",
                    "table_view":true,
                    "edit_view":true,
                    "widget":"int"
                },
                "entry_datetime":{
                    "size":"11",
                    "type":"int",
                    "presentation":"Entry Datetime",
                    "table_view":true,
                    "edit_view":false,
                    "widget":"date"
                },
                "deleted":{
                    "size":"1",
                    "default":"0",
                    "type":"int",
                    "presentation":"Deleted",
                    "table_view":false,
                    "edit_view":false,
                    "widget":"int"
                }
            }
        }
    }
}