{
    "meta":{
        "name":"Journal",
        "plural":"journals",
        "author":"Mike",
        "version":"1.0.0",
        "created":"",
        "icon":"star",
        "dependencies":{
            "core":""
        }
    },
    "routes":{
        "manage/journals":"Journal\\Controllers\\All",
        "manage/journals/all":"Journal\\Controllers\\All",
        "manage/journals/new":"Journal\\Controllers\\Edit",
        "manage/journals/edit/:Journal_id":"Journal\\Controllers\\Edit",
        "manage/journals/delete/:Journal_id":"Journal\\Controllers\\Delete",
        "manage/journals/restore/:Journal_id":"Journal\\Controllers\\Restore",
        "manage/journals/archive":"Journal\\Controllers\\Archive",
        "manage/journals/reorder/:this_id/:swap_id":"Journal\\Controllers\\Reorder"
    },
    "models":{
        "Journal":{
            "fields":{
                "id":{
                    "pk":true,
                    "ai":true,
                    "size":"11",
                    "type":"int",
                    "presentation":"Id",
                    "table_view":true,
                    "edit_view":false,
                    "widget":"pk"
                },
                "entry_datetime":{
                    "size":"11",
                    "type":"int",
                    "presentation":"Entry Datetime",
                    "table_view":true,
                    "edit_view":false,
                    "widget":"date"
                },
                "title":{
                    "size":"100",
                    "default":"untitled",
                    "type":"varchar",
                    "presentation":"Title",
                    "table_view":true,
                    "edit_view":true,
                    "widget":"varchar"
                },
                "author":{
                    "size":"100",
                    "default":"anonymous",
                    "type":"varchar",
                    "presentation":"Author",
                    "table_view":true,
                    "edit_view":true,
                    "widget":"varchar"
                },
                "body":{
                    "type":"text",
                    "presentation":"Body",
                    "table_view":true,
                    "edit_view":true,
                    "widget":"text"
                },
                "excerpt":{
                    "type":"text",
                    "presentation":"Excerpt",
                    "table_view":true,
                    "edit_view":true,
                    "widget":"text"
                },
                "main_image":{
                    "size":"100",
                    "type":"varchar",
                    "presentation":"Main Image",
                    "table_view":true,
                    "edit_view":true,
                    "widget":"varchar"
                },
                "publish_date":{
                    "size":"",
                    "default":"0",
                    "type":"int",
                    "presentation":"Publish Date",
                    "table_view":true,
                    "edit_view":true,
                    "widget":"int"
                },
                "deleted":{
                    "size":"1",
                    "default":"0",
                    "type":"int",
                    "presentation":"Deleted",
                    "table_view":false,
                    "edit_view":false,
                    "widget":"int"
                },
                "slug":{
                    "size":"100",
                    "type":"varchar",
                    "presentation":"Slug",
                    "table_view":true,
                    "edit_view":true,
                    "widget":"varchar"
                }
            }
        }
    }
}